<svg aria-hidden="true" style="position: absolute; width: 0; height: 0; overflow: hidden;" version="1.1" xmlns="http://www.w3.org/2000/svg" xmlns:xlink="http://www.w3.org/1999/xlink">
	<defs>
		<symbol xmlns="http://www.w3.org/2000/svg" viewBox="0 0 44.324 63.738" id="respect">
		    <path d="M28.551 0H15.773a3.131 3.131 0 00-3.128 3.128v1.117H6.191A6.2 6.2 0 000 10.436v47.111a6.2 6.2 0 006.191 6.191h31.942a6.2 6.2 0 006.191-6.191V10.436a6.2 6.2 0 00-6.191-6.191h-6.455V3.128A3.131 3.131 0 0028.551 0zM14.267 3.128a1.509 1.509 0 011.507-1.507h12.777a1.509 1.509 0 011.507 1.507v3.626a1.509 1.509 0 01-1.507 1.507H15.773a1.509 1.509 0 01-1.507-1.507zm23.867 2.737a4.576 4.576 0 014.571 4.571v47.111a4.576 4.576 0 01-4.571 4.571H6.191a4.576 4.576 0 01-4.574-4.571V10.436a4.576 4.576 0 014.571-4.571h6.455v.889a3.131 3.131 0 003.127 3.128h12.777a3.131 3.131 0 003.128-3.128v-.889z"></path>
		    <path d="M21.685 18.685L6.831 29.499a.81.81 0 00.477 1.465h3.541v13.434a.81.81 0 00.81.81h21.007a.81.81 0 00.81-.81V30.965h3.541a.81.81 0 00.477-1.465L22.64 18.686a.81.81 0 00-.955-.001zm10.98 10.659a.81.81 0 00-.81.81v13.434H12.468V30.154a.81.81 0 00-.81-.81H9.794l12.365-9 12.365 9z"></path>
		    <path d="M18.687 33.657a.81.81 0 10-1.151 1.14l2.91 2.938a.81.81 0 00.574.24.81.81 0 00.573-.237l5.192-5.192a.81.81 0 00-1.146-1.146l-4.617 4.617z"></path>
		</symbol>
		<symbol xmlns="http://www.w3.org/2000/svg" viewBox="0 0 59.836 59.867" id="integrity">
		    <path d="M51.66 32.975H29.837a2.493 2.493 0 01-2.511-2.511V18.926l-2.124 1.738a1.009 1.009 0 01-.821.193 1.142 1.142 0 01-.676-.579l-1.979-4.587a.966.966 0 01.29-1.11l17.139-14a1.807 1.807 0 01.483-.29 1.055 1.055 0 01.241-.145A4.285 4.285 0 0140.555 0h.386a1.9 1.9 0 01.676.145.516.516 0 01.241.145 1.808 1.808 0 01.483.29l9.9 8.063 7.242 5.89a.985.985 0 01.29 1.11l-1.977 4.635a1.021 1.021 0 01-.676.579.836.836 0 01-.821-.193l-2.124-1.738v11.539a2.464 2.464 0 01-2.515 2.51zM28.296 15.932a1.41 1.41 0 01.435.1.912.912 0 01.531.869v13.564a.587.587 0 00.579.579H51.66a.558.558 0 00.579-.579V16.9a.912.912 0 01.531-.869.971.971 0 011.014.145l2.7 2.173 1.207-2.8-6.614-5.407-9.942-8.066a.047.047 0 01-.048-.048l-.048-.048c-.048 0-.048-.048-.1-.048h-.338c-.048 0-.048.048-.1.048-.1.048-.1.048-.145.048L23.802 15.546l1.207 2.8 2.7-2.173a.8.8 0 01.587-.241z"></path>
		    <path d="M51.66 10.38a.968.968 0 01-.966-.966V.966a.966.966 0 111.931 0v8.4a.98.98 0 01-.965 1.014zm-6.662 10.666a3.092 3.092 0 00-.917-1.062 5.331 5.331 0 00-1.255-.724 24.134 24.134 0 00-1.5-.579 2.722 2.722 0 00-.579-.193h-.048c-.193-.048-.338-.145-.531-.193a6.937 6.937 0 01-.821-.386 1.158 1.158 0 01-.483-.483 1.336 1.336 0 01-.145-.628 1.27 1.27 0 01.579-1.062 3.308 3.308 0 011.738-.386 6.164 6.164 0 011.738.193 8.873 8.873 0 011.159.338l.193.1.488-1.835-.1-.145c-.241-.1-.676-.193-1.207-.338a14.046 14.046 0 00-1.5-.193v-2.124h-2.072v2.221a4.337 4.337 0 00-2.414 1.11 2.985 2.985 0 00-.917 2.317 2.449 2.449 0 00.338 1.352 2.9 2.9 0 00.772.917 7.456 7.456 0 001.11.676l.29.1c.29.1.628.241.917.338a12.084 12.084 0 011.207.435 10.1 10.1 0 011.014.483 2.541 2.541 0 01.676.579 1.459 1.459 0 01.241.772 1.331 1.331 0 01-.531 1.014 3.567 3.567 0 01-2.024.386 7.375 7.375 0 01-1.983-.2 14.674 14.674 0 01-1.4-.483l-.193-.1-.724 1.843.145.1a12.925 12.925 0 001.352.483 10.73 10.73 0 002.124.29v2.366h2.079v-2.37a5.013 5.013 0 002.6-1.062 2.95 2.95 0 00.917-2.269 3.121 3.121 0 00-.333-1.598z"></path>
		    <g transform="translate(0 35.486)">
		      <path d="M11.442 19.36H.966A.968.968 0 010 18.395V.966A.968.968 0 01.966 0h10.476a.968.968 0 01.966.966v17.429a.968.968 0 01-.966.965zm-9.511-1.931h8.546v-15.5H1.931z"></path>
		      <path d="M31.816 24.381a18.5 18.5 0 01-10.38-3.186c-.772-.531-1.5-1.11-2.173-1.642a13.336 13.336 0 00-7.918-3.573.97.97 0 11.193-1.931c4.49.386 6.759 2.221 8.932 3.959.676.531 1.3 1.062 2.028 1.545a16.406 16.406 0 0016.029 1.4l14.291-6.325a.659.659 0 00.29-.531.617.617 0 00-.338-.531 8.08 8.08 0 00-5.5-.821L35.481 15.16a3.678 3.678 0 01-4.828-.338L24.671 8.98a.956.956 0 011.352-1.352l5.938 5.84a1.857 1.857 0 002.414.241 1.9 1.9 0 00.724-1.352 1.819 1.819 0 00-.531-1.448l-4.635-4.49a8.959 8.959 0 00-7.58-2.366L11.587 5.311a.95.95 0 11-.241-1.883l10.766-1.3a10.767 10.767 0 019.173 2.9l4.683 4.49a3.958 3.958 0 011.11 2.945c0 .145-.048.338-.048.483l9.951-2.035a9.828 9.828 0 016.8 1.014 2.544 2.544 0 010 4.443c-.048 0-.048.048-.1.048l-14.339 6.325a18.284 18.284 0 01-7.526 1.64z"></path>
		      <circle cx="1.931" cy="1.931" r="1.931" transform="translate(4.297 11.346)"></circle>
		    </g>
		</symbol>
		<symbol xmlns="http://www.w3.org/2000/svg" viewBox="0 0 62.836 61.811" id="expert">
		    <path d="M17.856 29.407h1.852V46.55h24.757V29.412h1.848v18.846H17.856zm-15.849 3.01h-2C-.47 15.417 14.196-.238 32.374.003v2.019A30.524 30.524 0 002.007 32.417z"></path>
		    <path d="M30.356 61.811v-2.092a30.531 30.531 0 0030.4-30.4h2.077a32.586 32.586 0 01-32.477 32.492zm19.77-33.913l-1.406 1.278-16.255-15.139-17.077 15.208-1.3-1.375 18.408-16.4z"></path>
		    <path d="M25.705 40.254c-.548-2.31.9-4.667 4.077-6.621-2.486-2.544-2.743-4.983-.734-6.952a4.675 4.675 0 016.556.05c1.96 1.97 1.676 4.463-.806 6.919a6.6 6.6 0 014.2 6.6zm9.862-10.265a3.263 3.263 0 10-3.316 3.232 3.275 3.275 0 003.316-3.232zm1.246 8.694a4.88 4.88 0 00-9.548 0zM49.627 8.918l1.4-1.439 3.006 3.06 5.79-5.838 1.373 1.429-7.178 7.179zM3.601 57.977c.36-1.037.646-1.919.977-2.783a.825.825 0 00-.288-1.121c-.676-.507-1.294-1.092-2.066-1.755 1.027 0 1.907-.021 2.785.008a.707.707 0 00.81-.576c.272-.888.581-1.766.936-2.825.353.976.691 1.784.932 2.62a.927.927 0 001.109.785c.778-.051 1.563-.013 2.489-.013-.781.668-1.439 1.258-2.127 1.807a.741.741 0 00-.261.97 18.873 18.873 0 01.835 2.756c-.782-.528-1.582-1.031-2.336-1.595a.9.9 0 00-1.265-.016c-.771.581-1.59 1.098-2.53 1.738z"></path>
		</symbol>
		<symbol xmlns="http://www.w3.org/2000/svg" viewBox="0 0 59.85 59.256" id="transparent">
		    <path d="M50.63 20.032V3.533a1.3 1.3 0 00-1.3-1.3h-6.723a1.3 1.3 0 00-1.3 1.3v6.954L31.45.394a1.3 1.3 0 00-.917-.392 1.164 1.164 0 00-.924.373l-29.22 28.7a1.3 1.3 0 001.825 1.854l5.224-5.131v32.158a1.3 1.3 0 001.3 1.3h15.61a1.3 1.3 0 001.3-1.3V42.38h9v15.576a1.3 1.3 0 001.3 1.3h16.356a1.3 1.3 0 001.3-1.3V26.799l4.015 4.111a1.3 1.3 0 101.86-1.817zm-6.723-15.2h4.122V17.37l-4.122-4.221zm7.1 19.368v32.456h-13.76V41.079a1.3 1.3 0 00-1.3-1.3h-11.6a1.3 1.3 0 00-1.3 1.3v15.577H10.036V23.244l20.465-20.1 20.513 21.004c0 .019-.01.039-.01.054z"></path>
		</symbol>
		<symbol xmlns="http://www.w3.org/2000/svg" viewBox="0 0 19.796 12.538" id="drkarw">
			<path d="M19.8 6.269a.767.767 0 00-.186-.454L14.335.206a.661.661 0 00-.933-.026.68.68 0 00-.026.933l4.238 4.5H.66a.66.66 0 000 1.32h16.95l-4.238 4.5a.691.691 0 00.026.933.661.661 0 00.933-.026l5.279-5.609a.587.587 0 00.186-.454z" fill="#333"></path>
		</symbol>
		<symbol xmlns="http://www.w3.org/2000/svg" viewBox="0 0 40.137 46.198" id="add">
		    <path d="M26.472 15.586a6.406 6.406 0 10-6.406 6.4 6.413 6.413 0 006.406-6.4zm-10.964 0a4.558 4.558 0 114.558 4.557 4.563 4.563 0 01-4.558-4.557z"></path>
		    <path d="M25.342 35.936c4.926-6.688 10.308-15.179 10.308-20.348a15.583 15.583 0 10-31.165 0c0 5.16 5.387 13.655 10.317 20.348-4.6.306-14.8 1.4-14.8 5.042 0 4.129 13.128 5.219 20.068 5.219s20.068-1.09 20.068-5.219c-.001-3.647-10.196-4.736-14.796-5.042zM6.333 15.588a13.735 13.735 0 1127.469 0c0 3.918-3.894 11.242-10.965 20.62a141.225 141.225 0 01-2.764 3.542c-.553-.683-1.4-1.751-2.391-3.053-.126-.164-.244-.317-.373-.489-7.083-9.386-10.98-16.705-10.98-20.62zM20.072 44.35c-12.022 0-18.22-2.363-18.22-3.372 0-.75 4.254-2.795 14.275-3.269.1.135.2.258.3.388l.225.295.451.582.2.258.412.525.165.209.384.482c.037.046.076.1.112.14.128.161.242.3.348.433l.059.073c.362.446.576.7.581.709a.924.924 0 001.416 0l.16-.193.1-.118.125-.152.18-.222.161-.2c.079-.1.157-.194.248-.308l.182-.227.32-.4.215-.273.358-.457c.08-.1.164-.21.248-.318.132-.17.265-.341.4-.523.088-.113.176-.23.267-.348l.272-.354c10.022.474 14.275 2.519 14.275 3.269-.002 1.007-6.201 3.371-18.223 3.371z"></path>
		</symbol>
		<symbol xmlns="http://www.w3.org/2000/svg" viewBox="0 0 42.477 42.499" id="mail">
		    <path d="M42.477 16.925c0-.177-.088-.265-.088-.354v-.088c-.088-.088-.088-.177-.177-.265l-4.159-3.186V4.181a.836.836 0 00-.885-.885H25.752L21.858.199a.805.805 0 00-1.062 0L16.9 3.296H5.31a.836.836 0 00-.885.885v8.849l-4.16 3.275a.956.956 0 00-.265.62v24.69a.794.794 0 00.885.885h40.707c.531 0 .8-.354.885-.885v-24.69zm-4.425-1.593l2.124 1.681-2.124 1.681zM21.239 2.057l1.593 1.239h-3.275zM6.195 5.066h30.088V20.11L21.239 31.969 6.195 20.11zm-1.77 10.266v3.363L2.3 17.013zM1.77 18.871l10.619 8.407L1.77 39.314zm1.062 21.854L13.805 28.34l6.9 5.487a.805.805 0 001.062 0l6.9-5.487 10.978 12.385zm37.876-1.416l-10.62-12.031 10.619-8.407z"></path>
		    <path d="M10.885 10.553h10.088a.885.885 0 100-1.77H10.885a.836.836 0 00-.885.885.887.887 0 00.885.885zm0 4.779h20.708a.885.885 0 100-1.77H10.885a.836.836 0 00-.885.885.952.952 0 00.885.885zm0 4.778h20.708a.885.885 0 100-1.77H10.885a.836.836 0 00-.885.885.952.952 0 00.885.885z"></path>
		</symbol>
		<symbol xmlns="http://www.w3.org/2000/svg" viewBox="0 0 45.356 45.39" id="phone">
		    <path d="M41.163 39.994a4.441 4.441 0 000-6.567l-5.29-5.295a4.421 4.421 0 00-3.258-1.474 4.592 4.592 0 00-3.258 1.476l-3.055 3.055c-.255-.153-.509-.255-.764-.407-.356-.153-.662-.356-.967-.509a32.382 32.382 0 01-7.891-7.178 17.5 17.5 0 01-2.6-4.124c.764-.713 1.527-1.476 2.24-2.189l.815-.815a4.767 4.767 0 001.528-3.309 4.65 4.65 0 00-1.527-3.309l-2.6-2.647a14.27 14.27 0 01-.865-.916 29.366 29.366 0 00-1.782-1.782 4.538 4.538 0 00-3.207-1.425 4.743 4.743 0 00-3.258 1.425L2.12 7.31a6.971 6.971 0 00-2.087 4.429 17.751 17.751 0 001.222 7.127 41.2 41.2 0 007.331 12.269 45.338 45.338 0 0015.018 11.76 22.666 22.666 0 008.451 2.495h.608a7.17 7.17 0 005.5-2.393l.051-.051a17.89 17.89 0 011.68-1.731 9.564 9.564 0 001.269-1.221zm-3-.56a22.144 22.144 0 00-1.833 1.935 4.56 4.56 0 01-3.615 1.527h-.452a22.605 22.605 0 01-7.535-2.291 42.7 42.7 0 01-14.153-11.1 39.553 39.553 0 01-6.928-11.504 13.289 13.289 0 01-1.069-6.007 4.655 4.655 0 011.324-2.851l3.261-3.259a2.133 2.133 0 011.476-.713 2.155 2.155 0 011.476.713c.611.56 1.12 1.12 1.731 1.731l.916.916 2.6 2.6a2.2 2.2 0 01.764 1.527 2.2 2.2 0 01-.764 1.527l-.815.815c-.815.815-1.578 1.578-2.393 2.342l-.051.051a1.965 1.965 0 00-.509 2.138c0 .051 0 .051.051.1a19.909 19.909 0 003.106 5.04 35.342 35.342 0 008.5 7.738c.407.255.815.458 1.171.662.356.153.662.356.967.509.051 0 .051.051.1.051a2.074 2.074 0 00.916.255 2.049 2.049 0 001.425-.662l3.309-3.309a2.264 2.264 0 011.476-.713 2.256 2.256 0 011.425.713l5.295 5.295a1.952 1.952 0 01-.051 3.055 11.9 11.9 0 01-1.121 1.169zM23.502 9.244a1.211 1.211 0 011.476-1.018 14.371 14.371 0 017.993 4.175 15.415 15.415 0 014.175 7.993 1.281 1.281 0 01-1.018 1.476h-.2a1.307 1.307 0 01-1.273-1.069 11.969 11.969 0 00-3.462-6.618 12.481 12.481 0 00-6.618-3.462 1.213 1.213 0 01-1.073-1.477zm19.346 11.2a22.088 22.088 0 00-6.109-11.811 21.745 21.745 0 00-11.812-6.109 1.211 1.211 0 01-1.018-1.476A1.234 1.234 0 0125.385.03a24.377 24.377 0 0119.957 19.956 1.281 1.281 0 01-1.018 1.472h-.2a1.217 1.217 0 01-1.276-1.013z"></path>
		</symbol>
		<symbol id="icon-calender" viewBox="0 0 34 32">
			<title>calender</title>
			<path d="M8.64 0c-2.086 0.003-3.777 1.693-3.779 3.779v0.712h-0.88c-2.195 0.007-3.973 1.784-3.981 3.978v19.55c0.007 2.196 1.785 3.974 3.98 3.981h25.63c2.196-0.007 3.974-1.785 3.981-3.98v-19.55c-0.008-2.195-1.785-3.972-3.98-3.979h-0.881v-0.71c0-2.088-1.692-3.78-3.78-3.78s-3.78 1.692-3.78 3.78v0 0.71h-8.75v-0.71c-0.002-2.087-1.693-3.778-3.779-3.781h-0zM6.453 3.779c0-1.209 0.98-2.188 2.188-2.188s2.188 0.98 2.188 2.188v0 2.984h-4.378v-2.984zM29.61 30.408h-25.629c-1.319-0.001-2.388-1.070-2.389-2.389v-14.008h30.408v14.008c-0.001 1.319-1.071 2.389-2.39 2.389v0zM22.763 3.779c0-1.209 0.98-2.188 2.188-2.188s2.188 0.98 2.188 2.188v0 2.984h-4.377v-2.984zM21.171 6.082v1.477c0 0.44 0.357 0.797 0.797 0.797v0h5.968c0.44 0 0.797-0.357 0.797-0.797v0-1.477h0.877c1.319 0.001 2.388 1.070 2.389 2.389v3.949h-30.406v-3.949c0.001-1.319 1.070-2.388 2.389-2.389h0.88v1.477c0 0.44 0.357 0.797 0.797 0.797v0h5.968c0.44 0 0.797-0.357 0.797-0.797v0-1.477z"></path>
		</symbol>
		<symbol id="icon-comment" viewBox="0 0 35 32">
			<title>comment</title>
			<path stroke-linejoin="miter" stroke-linecap="butt" stroke-miterlimit="4" stroke-width="0.7816" d="M33.999 0.391h-32.827c-0.432 0-0.782 0.35-0.782 0.782v0 23.448c0 0.432 0.35 0.782 0.782 0.782v0h10.161v5.471c0.003 0.318 0.192 0.592 0.464 0.717l0.005 0.002c0.047 0.011 0.101 0.018 0.156 0.018s0.109-0.006 0.161-0.019l-0.005 0.001c0.204-0.003 0.39-0.080 0.532-0.204l-0.001 0.001 6.503-5.987h14.85c0.432 0 0.782-0.35 0.782-0.782v0-23.448c0-0.432-0.35-0.782-0.782-0.782v0zM33.218 23.839h-14.334c-0.204 0.006-0.389 0.082-0.533 0.204l0.001-0.001-5.456 5.049v-4.471c0-0.432-0.35-0.782-0.782-0.782v0h-10.161v-21.885h31.264z"></path>
			<path stroke-linejoin="miter" stroke-linecap="butt" stroke-miterlimit="4" stroke-width="0.7816" d="M12.896 12.896c0 0.863-0.7 1.563-1.563 1.563s-1.563-0.7-1.563-1.563c0-0.863 0.7-1.563 1.563-1.563s1.563 0.7 1.563 1.563z"></path>
			<path stroke-linejoin="miter" stroke-linecap="butt" stroke-miterlimit="4" stroke-width="0.7816" d="M19.149 12.896c0 0.863-0.7 1.563-1.563 1.563s-1.563-0.7-1.563-1.563c0-0.863 0.7-1.563 1.563-1.563s1.563 0.7 1.563 1.563z"></path>
			<path stroke-linejoin="miter" stroke-linecap="butt" stroke-miterlimit="4" stroke-width="0.7816" d="M25.402 12.896c0 0.863-0.7 1.563-1.563 1.563s-1.563-0.7-1.563-1.563c0-0.863 0.7-1.563 1.563-1.563s1.563 0.7 1.563 1.563z"></path>
		</symbol>
		<symbol id="icon-like" viewBox="0 0 34 32">
			<title>like</title>
			<path d="M34.135 16.284c0-2.281-1.778-3.484-4.267-3.484h-7.189c0.455-1.588 0.737-3.418 0.781-5.308l0-0.026c0-6.186-1.706-7.467-3.194-7.467-0.093-0.007-0.202-0.011-0.312-0.011-0.891 0-1.719 0.27-2.406 0.733l0.015-0.010c-0.258 0.152-0.442 0.406-0.496 0.705l-0.001 0.006-1.065 5.761c-1.476 3.064-3.654 5.585-6.336 7.426l-0.064 0.041v15.218c1.013 0.111 1.93 0.44 2.729 0.94l-0.027-0.016c1.061 0.636 2.323 1.047 3.673 1.136l0.025 0.001h10.172c0.034 0.001 0.074 0.002 0.113 0.002 1.847 0 3.371-1.388 3.583-3.178l0.002-0.017c0.003-0.045 0.004-0.098 0.004-0.151 0-0.224-0.028-0.441-0.080-0.649l0.004 0.018c1.259-0.408 2.161-1.551 2.205-2.91l0-0.005c0-0.017 0-0.037 0-0.056 0-0.577-0.132-1.124-0.367-1.611l0.010 0.022c0.904-0.568 1.524-1.517 1.635-2.616l0.001-0.015c-0.037-0.684-0.3-1.3-0.715-1.782l0.003 0.004c0.881-0.608 1.474-1.578 1.564-2.69l0.001-0.013zM31.93 16.284c0 1.35-1.422 1.493-1.636 2.129-0.213 0.712 0.853 0.996 0.853 2.281 0 1.35-1.636 1.35-1.849 1.991-0.284 0.782 0.497 1.065 0.497 2.347v0.213c-0.213 1.065-1.849 1.138-2.129 1.565-0.284 0.497 0.071 0.782 0.071 1.921 0 0.64-0.712 1.065-1.565 1.065h-10.169c-1.013-0.111-1.93-0.44-2.729-0.94l0.027 0.016c-0.754-0.424-1.628-0.787-2.546-1.044l-0.085-0.020v-11.307c2.631-1.991 6.045-5.049 7.395-8.747 0-0.071 0-0.143 0.071-0.143l0.996-5.333c0.282-0.098 0.607-0.155 0.945-0.155 0.093 0 0.185 0.004 0.276 0.013l-0.012-0.001c0.213 0 1.065 1.28 1.065 5.333-0.041 1.917-0.35 3.746-0.891 5.473l0.038-0.139h-0.284c-0.582 0.016-1.049 0.483-1.064 1.063l-0 0.001c0.016 0.582 0.483 1.049 1.063 1.065l0.001 0h9.601c1.065 0 2.062 0.497 2.062 1.35z"></path>
			<path d="M8.533 32h-6.404c-0.010 0-0.022 0-0.034 0-1.157 0-2.096-0.938-2.096-2.096 0-0.012 0-0.024 0-0.035l-0 0.002v-14.934c-0-0.010-0-0.022-0-0.034 0-1.157 0.938-2.096 2.096-2.096 0.012 0 0.024 0 0.035 0l-0.002-0h6.399c0.010-0 0.022-0 0.034-0 1.157 0 2.096 0.938 2.096 2.096 0 0.012-0 0.024-0 0.036l0-0.002v14.934c0 0.010 0 0.022 0 0.034 0 1.157-0.938 2.096-2.096 2.096-0.012 0-0.024-0-0.036-0l0.002 0zM2.129 14.934v14.934h6.399v-14.934z"></path>
		</symbol>
		<symbol id="icon-view" viewBox="0 0 55 32">
			<title>view</title>
			<path stroke-linejoin="miter" stroke-linecap="butt" stroke-miterlimit="4" stroke-width="1.0924" d="M27.438 0.546c-14.592 0-26.175 14.332-26.654 14.95-0.114 0.136-0.183 0.312-0.183 0.505s0.069 0.369 0.184 0.506l-0.001-0.001c0.487 0.618 12.071 14.95 26.654 14.95s26.175-14.332 26.654-14.95c0.107-0.138 0.171-0.314 0.171-0.505s-0.064-0.366-0.172-0.507l0.001 0.002c-0.478-0.618-12.062-14.95-26.654-14.95zM27.438 29.822c-12.315 0-22.759-11.273-24.972-13.827 2.213-2.558 12.658-13.821 24.972-13.821s22.754 11.262 24.972 13.827c-2.218 2.554-12.641 13.821-24.972 13.821z"></path>
			<path stroke-linejoin="miter" stroke-linecap="butt" stroke-miterlimit="4" stroke-width="1.0924" d="M27.438 5.962c-5.543 0-10.037 4.494-10.037 10.037s4.494 10.037 10.037 10.037c5.543 0 10.037-4.494 10.037-10.037v0c-0.007-5.54-4.497-10.029-10.036-10.037h-0.001zM27.438 24.41c-4.645 0-8.411-3.766-8.411-8.411s3.766-8.411 8.411-8.411c4.645 0 8.411 3.766 8.411 8.411v0c-0.006 4.643-3.768 8.405-8.411 8.411h-0.001z"></path>
		</symbol>
	  	<symbol id="facebook-icon" viewBox="0 0 32 32">
			<title>Facebook</title>
			<path d="M23.612 0.782l-3.951-0.009c-4.435 0-7.301 2.943-7.301 7.493v3.459h-3.972c-0.343 0-0.62 0.276-0.62 0.621v5.007c0 0.343 0.279 0.617 0.62 0.617h3.972v12.634c0 0.343 0.278 0.622 0.621 0.622h5.18c0.342 0 0.617-0.28 0.617-0.622v-12.634h4.64c0.347 0 0.623-0.275 0.623-0.617v-5.007c0-0.165-0.060-0.321-0.183-0.438-0.115-0.118-0.269-0.183-0.435-0.183h-4.646v-2.932c0-1.405 0.338-2.121 2.171-2.121h2.657c0.347 0 0.623-0.279 0.623-0.623v-4.646c0.004-0.342-0.274-0.62-0.616-0.62z"></path>
		</symbol>
		<symbol id="icon-twitter" viewBox="0 0 32 32">
			<title>Twitter</title>
			<path d="M32 7.075c-1.175 0.525-2.444 0.875-3.769 1.031 1.356-0.813 2.394-2.1 2.887-3.631-1.269 0.75-2.675 1.3-4.169 1.594-1.2-1.275-2.906-2.069-4.794-2.069-3.625 0-6.563 2.938-6.563 6.563 0 0.512 0.056 1.012 0.169 1.494-5.456-0.275-10.294-2.888-13.531-6.862-0.563 0.969-0.887 2.1-0.887 3.3 0 2.275 1.156 4.287 2.919 5.463-1.075-0.031-2.087-0.331-2.975-0.819 0 0.025 0 0.056 0 0.081 0 3.181 2.263 5.838 5.269 6.437-0.55 0.15-1.131 0.231-1.731 0.231-0.425 0-0.831-0.044-1.237-0.119 0.838 2.606 3.263 4.506 6.131 4.563-2.25 1.762-5.075 2.813-8.156 2.813-0.531 0-1.050-0.031-1.569-0.094 2.913 1.869 6.362 2.95 10.069 2.95 12.075 0 18.681-10.006 18.681-18.681 0-0.287-0.006-0.569-0.019-0.85 1.281-0.919 2.394-2.075 3.275-3.394z"></path>
		</symbol>
		<symbol id="linkedin-icon" viewBox="0 0 32 32">
			<title>Linkedin</title>
			<path d="M30.066 19.040v10.401h-6.030v-9.705c0-2.437-0.873-4.101-3.054-4.101-1.667 0-2.659 1.121-3.095 2.207-0.159 0.388-0.2 0.928-0.2 1.469v10.13h-6.031c0 0 0.081-16.436 0-18.139h6.031v2.572c-0.013 0.019-0.027 0.040-0.040 0.059h0.040v-0.059c0.801-1.235 2.232-2.998 5.436-2.998 3.968 0 6.943 2.592 6.943 8.164zM5.345 2.559c-2.062 0-3.412 1.353-3.412 3.133 0 1.74 1.309 3.135 3.333 3.135h0.041c2.103 0 3.411-1.395 3.411-3.135-0.040-1.782-1.308-3.133-3.373-3.133zM2.291 29.441h6.030v-18.139h-6.030v18.139z"></path>
		</symbol>
		<symbol id="youtube-icon" viewBox="0 0 32 32">
			<title>Youtube</title>
			<path d="M29.699 7.692c-0.812-1.445-1.693-1.711-3.488-1.812-1.793-0.122-6.301-0.172-10.207-0.172-3.914 0-8.424 0.050-10.214 0.17-1.791 0.102-2.674 0.366-3.493 1.814-0.836 1.443-1.267 3.927-1.267 8.302 0 0.005 0 0.006 0 0.006 0 0.004 0 0.006 0 0.006v0.003c0 4.357 0.43 6.861 1.267 8.291 0.82 1.444 1.701 1.706 3.493 1.828 1.792 0.105 6.303 0.166 10.216 0.166 3.905 0 8.413-0.061 10.209-0.164 1.795-0.123 2.676-0.384 3.488-1.829 0.845-1.427 1.271-3.932 1.271-8.289 0 0 0-0.005 0-0.010 0 0 0-0.003 0-0.005-0.001-4.378-0.429-6.862-1.275-8.305zM12.257 21.615v-11.229l9.358 5.615-9.358 5.614z"></path>
		</symbol>
		<symbol id="instagram-icon" viewBox="0 0 32 32">
			<title>Instagram</title>
			<path d="M16.002 7.678c-4.555 0.007-8.246 3.702-8.246 8.258 0 4.561 3.697 8.258 8.258 8.258s8.258-3.697 8.258-8.258v0c-0.009-4.562-3.709-8.257-8.271-8.258h-0zM16.002 21.226c-2.921 0-5.29-2.368-5.29-5.29s2.368-5.29 5.29-5.29c2.921 0 5.29 2.368 5.29 5.29v0c-0.015 2.915-2.374 5.275-5.288 5.29h-0.001z"></path>
			<path d="M26.451 7.484c0 1.033-0.837 1.87-1.87 1.87s-1.87-0.837-1.87-1.87c0-1.033 0.837-1.87 1.87-1.87s1.87 0.837 1.87 1.87z"></path>
			<path d="M29.42 2.645c-1.659-1.638-3.939-2.65-6.456-2.65-0.112 0-0.223 0.002-0.334 0.006l0.016-0h-13.289c-0.16-0.010-0.347-0.016-0.535-0.016-4.881 0-8.839 3.957-8.839 8.839 0 0.187 0.006 0.373 0.017 0.557l-0.001-0.025v13.227c-0.004 0.102-0.006 0.222-0.006 0.343 0 2.562 1.038 4.881 2.716 6.561l-0-0c1.674 1.561 3.927 2.52 6.405 2.52 0.107 0 0.214-0.002 0.32-0.005l-0.015 0h13.162c0.095 0.003 0.207 0.005 0.319 0.005 2.494 0 4.763-0.958 6.461-2.526l-0.006 0.006c1.64-1.666 2.652-3.954 2.652-6.478 0-0.127-0.003-0.253-0.008-0.379l0.001 0.018v-13.289c0.003-0.089 0.005-0.194 0.005-0.3 0-2.491-0.985-4.753-2.588-6.416l0.003 0.003zM29.161 22.646c0.003 0.067 0.004 0.145 0.004 0.224 0 1.755-0.717 3.342-1.874 4.485l-0.001 0.001c-1.172 1.046-2.727 1.685-4.431 1.685-0.098 0-0.195-0.002-0.292-0.006l0.014 0h-13.162c-0.083 0.004-0.18 0.006-0.278 0.006-1.704 0-3.259-0.639-4.438-1.691l0.007 0.006c-1.084-1.156-1.75-2.715-1.75-4.43 0-0.121 0.003-0.242 0.010-0.361l-0.001 0.017v-13.227c-0.005-0.090-0.007-0.196-0.007-0.302 0-1.707 0.665-3.259 1.751-4.41l-0.003 0.003c1.158-1.046 2.7-1.687 4.391-1.687 0.112 0 0.223 0.003 0.334 0.008l-0.016-0.001h13.289c0.090-0.005 0.196-0.007 0.302-0.007 1.707 0 3.259 0.665 4.41 1.751l-0.003-0.003c1.088 1.181 1.755 2.765 1.755 4.504 0 0.050-0.001 0.101-0.002 0.151l0-0.007v13.289z"></path>
		</symbol>
		<symbol id="icon-arrow" viewBox="0 0 52 32">
			<title>arrow</title>
			<path d="M51.85 15.406l-15.406-15.406-2.963 2.963 10.845 10.845h-44.326v4.19h44.521l-11.041 11.041 2.963 2.963 15.406-15.406-0.592-0.592z"></path>
		</symbol>
		<symbol id="icon-search" viewBox="0 0 37 32">
			<title>search</title>
			<path fill="#fff" style="fill: var(--color1, #fff)" d="M27.468 20.070c0.765-1.699 1.211-3.682 1.211-5.77 0-7.926-6.425-14.351-14.351-14.351s-14.351 6.425-14.351 14.351c0 7.926 6.425 14.351 14.351 14.351 4.398 0 8.335-1.979 10.967-5.095l0.017-0.021 8.465 8.465 2.806-2.806zM14.216 25.053c-5.808 0-10.517-4.709-10.517-10.517s4.709-10.517 10.517-10.517c5.808 0 10.517 4.709 10.517 10.517v0c0 5.808-4.709 10.517-10.517 10.517v0z"></path>
		</symbol>
		<symbol id="icon-phone" viewBox="0 0 32 32">
			<title>phone</title>
			<path fill="#999" style="fill: var(--color1, #999)" d="M23.174 32v0c-5.091 0-10.279-2.612-15.428-7.759-10.884-10.88-7.516-19.312-6.218-21.638 0.968-1.754 4.61-2.425 5.715-2.591 0.053-0.009 0.115-0.013 0.178-0.013 0.454 0 0.848 0.255 1.048 0.629l0.003 0.006 3.882 7.56c0.085 0.159 0.135 0.348 0.135 0.548 0 0.325-0.131 0.618-0.342 0.832l0-0-3.246 3.227c1.099 2.365 2.515 4.389 4.225 6.124l-0.002-0.003c1.714 1.674 3.714 3.065 5.919 4.091l0.132 0.055 3.219-3.219c0.214-0.211 0.508-0.342 0.832-0.342 0.2 0 0.389 0.050 0.555 0.138l-0.006-0.003 7.56 3.88c0.381 0.202 0.636 0.596 0.636 1.049 0 0.064-0.005 0.126-0.015 0.187l0.001-0.007c-0.164 1.094-0.829 4.738-2.591 5.711-1.755 0.969-3.847 1.539-6.073 1.539-0.041 0-0.082-0-0.123-0.001l0.006 0zM6.757 2.508c-1.201 0.157-2.276 0.6-3.185 1.258l0.020-0.014c-1.088 1.957-3.882 9.104 5.829 18.811 4.62 4.62 9.377 7.064 13.753 7.064v0c0.035 0 0.076 0.001 0.117 0.001 1.81 0 3.512-0.461 4.996-1.272l-0.054 0.027c0.644-0.888 1.087-1.962 1.24-3.128l0.004-0.035-6.011-3.084-3.016 3.016c-0.208 0.209-0.494 0.341-0.811 0.348l-0.001 0c-2.707 0-7.288-4.090-8.179-4.91-0.902-0.972-5.039-5.609-4.975-8.252 0.008-0.318 0.139-0.604 0.348-0.813l3.016-3.016z"></path>
		</symbol>
		<symbol id="icon-email" viewBox="0 0 47 32">
			<title>email</title>
			<path fill="#999" style="fill: var(--color1, #999)" d="M1.601 0c-0.884 0-1.601 0.717-1.601 1.601v0 28.802c0 0.884 0.717 1.601 1.601 1.601v0h43.734c0.884 0 1.601-0.717 1.601-1.601v0-28.802c0-0.884-0.717-1.601-1.601-1.601v0zM6.134 3.201h34.658l-17.333 13.95zM3.201 4.934l19.269 15.501c0.271 0.219 0.62 0.351 1 0.351s0.729-0.132 1.003-0.354l-0.003 0.002 19.269-15.501v23.867h-40.538z"></path>
		</symbol>
		<symbol id="icon-download" viewBox="0 0 32 32">
			<title>download</title>
			<path d="M29.594 15.105c-0.507 0-0.919 0.411-0.919 0.919v13.162h-26.324v-13.162c0-0.508-0.411-0.919-0.919-0.919s-0.919 0.411-0.919 0.919v14.081c0 0.507 0.411 0.919 0.919 0.919h28.162c0.507 0 0.919-0.412 0.919-0.919v-14.081c-0.001-0.508-0.412-0.919-0.919-0.919zM22.59 15.087c-0.235 0-0.47 0.089-0.65 0.269l-5.49 5.49v-18.904c0-0.507-0.412-0.919-0.919-0.919s-0.919 0.412-0.919 0.919v18.904l-5.508-5.509c-0.179-0.179-0.415-0.269-0.65-0.269s-0.47 0.089-0.65 0.269c-0.359 0.358-0.359 0.94 0 1.3l7.076 7.076c0.086 0.086 0.188 0.154 0.301 0.2 0.005 0.002 0.010 0.002 0.014 0.004 0.104 0.041 0.216 0.065 0.335 0.065s0.232-0.024 0.336-0.065c0.004-0.002 0.009-0.002 0.013-0.004 0.114-0.047 0.217-0.115 0.302-0.201l7.057-7.057c0.359-0.359 0.359-0.941 0-1.3-0.178-0.179-0.413-0.269-0.648-0.269z"></path>
		</symbol>
		<symbol id="icon-next" viewBox="0 0 32 32">
			<title>next</title>
			<path d="M24.191 15.362l-15.095-15.095c-0.355-0.355-0.925-0.355-1.281 0s-0.355 0.925 0 1.281l14.452 14.452-14.452 14.452c-0.355 0.355-0.355 0.925 0 1.281 0.174 0.174 0.409 0.268 0.637 0.268s0.463-0.087 0.637-0.268l15.095-15.095c0.355-0.349 0.355-0.925 0.007-1.274z"></path>
		</symbol>
		<symbol id="icon-back" viewBox="0 0 32 32">
			<title>back</title>
			<path d="M9.736 15.999l14.452-14.452c0.355-0.355 0.355-0.925 0-1.281s-0.925-0.355-1.281 0l-15.095 15.095c-0.355 0.355-0.355 0.925 0 1.281l15.095 15.089c0.174 0.174 0.409 0.268 0.637 0.268s0.463-0.087 0.637-0.268c0.355-0.355 0.355-0.925 0-1.281l-14.445-14.452z"></path>
		</symbol>
		<symbol id="icon-noun_Zoom-In_2070345" viewBox="0 0 32 32">
			<title>noun_Zoom-In_2070345</title>
			<path d="M2.337 1.336h6.64c0.353 0 0.636-0.283 0.636-0.636s-0.283-0.636-0.636-0.636c0 0 0 0 0 0h-8.265c-0.071 0-0.071 0-0.141 0h-0.283c0 0.071-0.071 0.141-0.141 0.212v0.071c0 0 0 0.071 0 0.071s0 0.071 0 0.071c0 0 0 0.071 0 0.071-0.071 0-0.071 0.071-0.071 0.071v8.265c0 0.353 0.283 0.636 0.636 0.636s0.636-0.283 0.636-0.636c0 0 0 0 0 0v-6.57l10.172 10.172c0.283 0.212 0.706 0.212 0.918-0.071s0.212-0.636 0-0.848l-10.102-10.243z"></path>
			<path d="M11.521 19.561l-10.172 10.172v-6.64c0-0.353-0.283-0.636-0.636-0.636s-0.636 0.283-0.636 0.636v8.194c0 0.071 0 0.071 0 0.141 0 0 0 0.071 0 0.071s0 0.071 0 0.071c0 0 0 0.071 0 0.071v0.071c0.071 0.071 0.141 0.141 0.212 0.212h0.283c0.071 0 0.071 0 0.141 0h8.265c0.353 0 0.636-0.283 0.636-0.636s-0.283-0.636-0.636-0.636h-6.711l10.172-10.172c0.283-0.212 0.353-0.636 0.071-0.918-0.212-0.283-0.636-0.353-0.918-0.071 0 0-0.071 0.071-0.071 0.071z"></path>
			<path d="M20.492 12.426l10.172-10.172v6.64c0 0.353 0.283 0.636 0.636 0.636s0.636-0.283 0.636-0.636v0-8.265c0-0.071 0-0.071 0-0.141 0 0 0-0.071 0-0.071s0-0.071 0-0.071c0 0 0-0.071 0-0.071v-0.071c-0.071-0.071-0.141-0.141-0.212-0.212h-0.283c-0.071 0-0.071 0-0.141 0h-8.194c-0.353 0-0.636 0.283-0.636 0.636-0.071 0.424 0.212 0.706 0.636 0.706 0 0 0 0 0 0h6.64l-10.243 10.172c-0.212 0.283-0.212 0.706 0.071 0.918s0.636 0.212 0.918 0v0z"></path>
			<path d="M29.746 30.581h-6.64c-0.353 0-0.636 0.283-0.636 0.636s0.283 0.636 0.636 0.636v0h8.194c0.071 0 0.071 0 0.141 0h0.283c0.071-0.071 0.141-0.141 0.212-0.212v-0.071c0 0 0-0.071 0-0.071s0-0.071 0-0.071c0 0 0-0.071 0-0.071 0-0.071 0-0.071 0-0.141v-8.194c0-0.353-0.283-0.636-0.636-0.636s-0.636 0.283-0.636 0.636v6.57l-10.172-10.172c-0.283-0.212-0.706-0.212-0.918 0.071s-0.212 0.636 0 0.848l10.172 10.243z"></path>
		</symbol>
		<symbol id="icon-image_Zoom" viewBox="0 0 32 32">
			<title>image_zoom</title>
			<path d="M1.503 8.957v-7.454h7.409v-1.502h-8.911v8.956z"></path>
			<path d="M23.389 1.503h7.108v7.454h1.502v-8.956h-8.61z"></path>
			<path d="M8.912 30.497h-7.409v-7.063h-1.502v8.565h8.911z"></path>
			<path d="M30.497 23.434v7.063h-7.108v1.502h8.61v-8.565z"></path>
			<path d="M1.062 0l8.308 8.308-1.062 1.062-8.308-8.308 1.062-1.062z"></path>
			<path d="M31.999 1.062l-8.308 8.308-1.062-1.062 8.308-8.308 1.062 1.062z"></path>
			<path d="M30.936 32l-8.060-8.060 1.062-1.062 8.060 8.060-1.062 1.062z"></path>
			<path d="M0.001 30.938l8-8 1.062 1.062-8 8-1.062-1.062z"></path>
		</symbol>
		<symbol id="icon-close" viewBox="0 0 32 32">
			<title>close</title>
			<path d="M32 1.885l-1.885-1.885-14.115 14.115-14.115-14.115-1.885 1.885 14.115 14.115-14.115 14.115 1.885 1.885 14.115-14.115 14.115 14.115 1.885-1.885-14.115-14.115z"></path>
		</symbol>
		<symbol id="icon-community" viewBox="0 0 50 32">
			<title>community</title>
			<path d="M11.106 0c-3.386 0.055-6.109 2.813-6.109 6.207 0 0.028 0 0.056 0.001 0.084l-0-0.004c-0 0.008-0 0.018-0 0.028 0 1.717 0.68 3.275 1.785 4.42l-0.002-0.002c-3.979 1.58-6.747 5.382-6.781 9.835l-0 0.004c-0 0.002-0 0.005-0 0.008 0 0.308 0.248 0.559 0.555 0.564h15.446c-3.269 2.304-5.393 6.042-5.449 10.279l-0 0.009c-0 0.002-0 0.005-0 0.008 0 0.308 0.248 0.559 0.555 0.564h27.766c0.308-0.005 0.555-0.255 0.555-0.564 0-0.003-0-0.006-0-0.009v0c-0.057-4.246-2.18-7.984-5.408-10.261l-0.040-0.027h15.445c0.308-0.005 0.555-0.255 0.555-0.564 0-0.003-0-0.006-0-0.009v0c-0.034-4.457-2.802-8.26-6.709-9.815l-0.072-0.025c1.106-1.144 1.788-2.704 1.788-4.423 0-0.008 0-0.016-0-0.024v0.001c0.002-0.055 0.003-0.119 0.003-0.183 0-3.375-2.736-6.111-6.111-6.111s-6.111 2.736-6.111 6.111c0 0.064 0.001 0.129 0.003 0.193l-0-0.009c-0 0.007-0 0.015-0 0.023 0 1.719 0.682 3.279 1.79 4.425l-0.002-0.002c-0.928 0.378-1.728 0.827-2.462 1.362l0.033-0.023c-0.426-3.596-3.457-6.358-7.132-6.358s-6.706 2.762-7.129 6.324l-0.003 0.034c-0.701-0.512-1.501-0.962-2.353-1.312l-0.076-0.028c1.106-1.144 1.788-2.704 1.788-4.423 0-0.008 0-0.016-0-0.024v0.001c0-0.023 0-0.051 0-0.079 0-3.396-2.727-6.155-6.11-6.207l-0.005-0zM11.106 1.143c0.044-0.001 0.096-0.002 0.148-0.002 2.842 0 5.145 2.304 5.145 5.145s-2.304 5.145-5.145 5.145c-2.842 0-5.145-2.304-5.145-5.145 0-0 0-0 0-0.001v0c-0-0.024-0.001-0.051-0.001-0.079 0-2.774 2.23-5.026 4.995-5.063l0.003-0zM38.872 1.143c0.044-0.001 0.096-0.002 0.148-0.002 2.842 0 5.145 2.304 5.145 5.145s-2.304 5.145-5.145 5.145c-2.842 0-5.145-2.304-5.145-5.145 0-0 0-0 0-0.001v0c-0-0.024-0.001-0.051-0.001-0.079 0-2.774 2.231-5.027 4.996-5.063l0.003-0zM24.989 6.857c0.053-0.002 0.116-0.003 0.18-0.003 3.473 0 6.288 2.815 6.288 6.288s-2.815 6.288-6.288 6.288c-3.473 0-6.288-2.815-6.288-6.287v-0c-0-0.028-0.001-0.062-0.001-0.096 0-3.391 2.726-6.145 6.106-6.19l0.004-0zM7.789 11.572c0.932 0.627 2.080 1 3.314 1s2.382-0.373 3.336-1.014l-0.022 0.014c1.26 0.431 2.35 1.050 3.297 1.836l-0.017-0.014c0.026 0.026 0.054 0.050 0.085 0.070l0.002 0.001c0.090 2.198 1.111 4.14 2.678 5.455l0.012 0.009c-1.011 0.309-1.879 0.672-2.702 1.111l0.081-0.039c-0.013-0.001-0.028-0.002-0.044-0.002s-0.030 0.001-0.046 0.002l0.002-0h-16.569c0.273-3.956 2.925-7.227 6.524-8.409l0.067-0.019zM35.555 11.572c0.932 0.627 2.080 1 3.314 1s2.382-0.373 3.336-1.014l-0.022 0.014c3.67 1.2 6.325 4.472 6.596 8.401l0.002 0.030h-16.572c-0.022 0.006-0.039 0.012-0.056 0.019l0.004-0.001c-0.753-0.407-1.633-0.777-2.551-1.061l-0.106-0.028c1.578-1.324 2.6-3.266 2.689-5.449l0-0.015c0.033-0.022 0.061-0.045 0.087-0.071l0-0c0.93-0.772 2.019-1.391 3.206-1.801l0.073-0.022zM21.762 19.786c0.937 0.495 2.049 0.786 3.228 0.786s2.291-0.291 3.266-0.804l-0.038 0.018c5.626 1.263 9.764 5.728 10.048 11.071h-26.551c0.284-5.343 4.422-9.809 10.048-11.071z"></path>
		</symbol>
		<symbol id="icon-plantHand" viewBox="0 0 32 32">
			<title>plant-hand</title>
			<path d="M32.197 15.954c-0.343-0.657-0.926-1.15-1.63-1.367l-0.019-0.005c-0.124-0.025-0.266-0.039-0.412-0.039-0.551 0-1.054 0.204-1.438 0.54l0.003-0.002c-0.022 0.017-0.042 0.035-0.061 0.054l-0 0c-0.008 0.008-0.81 0.837-2.060 2.087l-0.617 0.447c-0.323-0.296-0.754-0.479-1.227-0.486l-0.001-0c-0.011-0.001-0.023-0.001-0.035-0.001-0.095 0-0.185 0.023-0.264 0.063l0.003-0.002c-0.781 0.417-1.711 0.822-2.675 1.156l-0.141 0.043-0.013-0.014c-1.263-1.186-2.968-1.915-4.843-1.915-0.218 0-0.434 0.010-0.646 0.029l0.027-0.002c-0.239-0.81-0.721-3.331 1.152-6.686 0.934 0.917 2.207 1.49 3.615 1.512l0.004 0q0.191 0 0.383-0.015c2.823-0.225 4.144-2.708 5.421-5.109 1.035-1.944 2.013-3.784 3.7-4.45 0.208-0.083 0.352-0.283 0.352-0.516s-0.144-0.433-0.348-0.515l-0.004-0.001c-0.627-0.256-1.362-0.466-2.124-0.595l-0.063-0.009c-0.612-0.099-1.318-0.156-2.037-0.156-0.026 0-0.052 0-0.078 0l0.004-0c-4.855 0-9.908 1.93-10.252 6.238-0.008 0.099-0.013 0.215-0.013 0.332 0 0.766 0.197 1.487 0.543 2.113l-0.011-0.023q0.081 0.146 0.167 0.285c-0.028 0.029-0.052 0.061-0.073 0.096l-0.001 0.002c-0.537 0.885-0.987 1.908-1.296 2.989l-0.022 0.089c-0.309-0.483-0.728-0.871-1.222-1.135l-0.018-0.009c0.007-0.012 0.016-0.024 0.023-0.036 0.242-0.438 0.385-0.959 0.385-1.514 0-0.085-0.003-0.169-0.010-0.252l0.001 0.011c-0.243-3.064-3.79-4.434-7.195-4.434-0.014-0-0.031-0-0.048-0-0.503 0-0.996 0.040-1.478 0.116l0.053-0.007c-0.409 0.076-0.763 0.172-1.105 0.292l0.052-0.016c-0.142 0.045-0.284 0.090-0.426 0.13-0.237 0.067-0.408 0.281-0.408 0.535 0 0.235 0.146 0.436 0.352 0.517l0.004 0.001c1.094 0.433 1.75 1.664 2.443 2.967 0.855 1.607 1.824 3.428 3.853 3.59q0.138 0.011 0.276 0.011c0.979-0.010 1.867-0.395 2.528-1.018l-0.002 0.002c0.016 0.010 0.035 0.020 0.055 0.029l0.004 0.002c1.25 0.514 1.508 2.268 1.51 2.288 0.007 0.027 0.014 0.049 0.024 0.071l-0.001-0.003c-0.009 0.145-0.015 0.315-0.015 0.485 0 0.702 0.090 1.384 0.259 2.033l-0.012-0.056c-1.461 0.37-2.736 1.014-3.828 1.879l0.021-0.016h-0.008c-1.299-0.346-2.432-0.804-3.491-1.381l0.082 0.041c-0.075-0.039-0.163-0.062-0.256-0.062-0.014 0-0.027 0-0.041 0.001l0.002-0c-0.474 0.007-0.905 0.19-1.23 0.487l0.001-0.001-0.618-0.448c-1.251-1.251-2.052-2.079-2.060-2.087-0.019-0.019-0.038-0.037-0.059-0.053l-0.001-0.001c-0.382-0.334-0.885-0.537-1.436-0.537-0.146 0-0.288 0.014-0.426 0.041l0.014-0.002c-0.723 0.222-1.306 0.715-1.642 1.357l-0.007 0.015c-0.039 0.074-0.063 0.162-0.063 0.256s0.023 0.182 0.064 0.259l-0.001-0.003c0.25 0.473 2.464 4.651 3.321 5.553 0.681 0.654 1.453 1.221 2.293 1.68l0.056 0.028 2.145 1.318c0.016 0.011 0.39 0.271 0.162 1.159l-1.377 3.894c-0.020 0.055-0.031 0.117-0.031 0.183 0 0.308 0.25 0.557 0.557 0.557 0.242 0 0.449-0.155 0.525-0.37l0.001-0.004 1.389-3.918c0.005-0.015 0.010-0.030 0.014-0.046 0.464-1.782-0.642-2.401-0.662-2.411l-2.167-1.331c-0.8-0.434-1.49-0.935-2.105-1.515l0.005 0.005c-1.007-1.43-2.001-3.074-2.882-4.785l-0.111-0.237c0.18-0.265 0.441-0.465 0.746-0.564l0.010-0.003c0.048-0.007 0.103-0.012 0.16-0.012 0.285 0 0.544 0.108 0.74 0.285l-0.001-0.001c0.162 0.162 0.935 0.962 2.074 2.101 0.020 0.020 0.042 0.039 0.065 0.056l0.002 0.001 0.891 0.648c0.072 0.75 0.338 1.425 0.746 1.992l-0.008-0.012c0.951 1.398 3.774 2.587 4.093 2.719 0.064 0.028 0.138 0.044 0.216 0.044 0.306 0 0.555-0.248 0.555-0.555 0-0.232-0.143-0.431-0.345-0.514l-0.004-0.001c-0.781-0.324-2.949-1.363-3.595-2.312-0.486-0.729-0.628-1.349-0.515-1.58 0.063-0.129 0.262-0.187 0.433-0.213 1.035 0.561 2.235 1.033 3.496 1.354l0.11 0.024c0.925 0.105 1.756 0.268 2.561 0.493l-0.114-0.027c0.047 0.023 0.102 0.040 0.159 0.047l0.003 0c0.537 0.105 0.991 0.402 1.298 0.816l0.004 0.006c0.241 0.424 0.383 0.932 0.383 1.473 0 0.347-0.059 0.681-0.166 0.991l0.006-0.021c-0.435 2.219-0.684 4.77-0.684 7.379 0 0.21 0.002 0.42 0.005 0.629l-0-0.032c-0 0.004-0 0.008-0 0.012 0 0.303 0.243 0.55 0.546 0.555h0.009c0 0 0 0 0 0 0.303 0 0.55-0.243 0.555-0.546v-0c-0.001-0.090-0.001-0.196-0.001-0.302 0-2.363 0.183-4.684 0.535-6.948l-0.032 0.252c0.32 2.011 0.503 4.329 0.503 6.69 0 0.108-0 0.217-0.001 0.325l0-0.017c0.005 0.303 0.252 0.546 0.555 0.546 0 0 0 0 0 0h0.008c0.303-0.005 0.546-0.251 0.546-0.555 0-0.004-0-0.009-0-0.013v0.001c0.003-0.174 0.004-0.379 0.004-0.584 0-2.613-0.25-5.168-0.728-7.642l0.040 0.252c-0.101-0.289-0.159-0.622-0.159-0.969 0-0.536 0.139-1.040 0.383-1.477l-0.008 0.015c0.311-0.424 0.768-0.725 1.295-0.83l0.014-0.002c0.060-0.008 0.115-0.025 0.165-0.049l-0.003 0.001c0.692-0.197 1.522-0.361 2.373-0.459l0.075-0.007c1.37-0.344 2.571-0.816 3.69-1.419l-0.084 0.041c0.171 0.026 0.37 0.081 0.433 0.213 0.113 0.232-0.028 0.848-0.513 1.576-0.648 0.952-2.817 1.995-3.598 2.317-0.193 0.090-0.324 0.282-0.324 0.505 0 0.306 0.248 0.555 0.555 0.555 0.069 0 0.135-0.012 0.195-0.035l-0.004 0.001c0.318-0.131 3.142-1.32 4.096-2.724 0.399-0.553 0.664-1.228 0.734-1.959l0.001-0.016 0.891-0.648c0.025-0.018 0.046-0.037 0.067-0.057l-0 0c1.138-1.138 1.914-1.936 2.074-2.101 0.196-0.176 0.456-0.284 0.741-0.284 0.053 0 0.105 0.004 0.156 0.011l-0.006-0.001c0.317 0.102 0.579 0.301 0.758 0.562l0.003 0.005c-0.993 1.948-1.988 3.592-3.087 5.158l0.090-0.135c-0.616 0.581-1.312 1.088-2.066 1.501l-0.052 0.026-2.106 1.296c-0.047 0.025-1.154 0.642-0.69 2.43 0.004 0.015 0.009 0.031 0.014 0.046l1.385 3.914c0.081 0.213 0.283 0.361 0.52 0.361 0.306 0 0.555-0.248 0.555-0.555 0-0.063-0.011-0.124-0.030-0.181l0.001 0.004-1.377-3.894c-0.224-0.891 0.149-1.149 0.174-1.164l2.106-1.296c0.909-0.492 1.692-1.065 2.387-1.73l-0.004 0.004c0.859-0.902 3.073-5.080 3.321-5.553 0.039-0.074 0.062-0.161 0.062-0.254s-0.023-0.181-0.064-0.257l0.001 0.003zM16.976 6.327c0.331-4.131 6.128-5.22 9.147-5.22 0.019-0 0.041-0 0.063-0 0.66 0 1.309 0.051 1.941 0.15l-0.070-0.009c0.266 0.042 0.531 0.097 0.796 0.162-1.363 1.025-2.247 2.686-3.108 4.305-1.189 2.236-2.313 4.348-4.531 4.524-0.075 0.005-0.163 0.008-0.251 0.008-1.539 0-2.88-0.844-3.588-2.093l-0.011-0.021c-0.251-0.452-0.399-0.99-0.399-1.564 0-0.085 0.003-0.17 0.010-0.253l-0.001 0.011zM10.502 11.774c-1.422-0.114-2.135-1.458-2.962-3.006-0.495-1.069-1.13-1.985-1.895-2.775l0.003 0.003c0.061-0.013 0.122-0.025 0.183-0.035 0.376-0.060 0.81-0.094 1.252-0.094 0.016 0 0.031 0 0.047 0h-0.002c2.011 0 5.874 0.714 6.089 3.415 0.004 0.050 0.007 0.107 0.007 0.165 0 0.358-0.093 0.694-0.255 0.987l0.005-0.010c-0.459 0.816-1.32 1.359-2.307 1.359-0.058 0-0.115-0.002-0.172-0.006l0.008 0zM18.36 19.108c-0.824 0.167-1.519 0.629-1.984 1.269l-0.006 0.009c-0.083 0.122-0.163 0.261-0.231 0.407l-0.008 0.018c-0.076-0.164-0.155-0.304-0.246-0.435l0.007 0.010c-0.471-0.649-1.166-1.112-1.97-1.275l-0.021-0.003c-0.309-0.102-0.688-0.195-1.076-0.261l-0.049-0.007c1.052-0.759 2.368-1.215 3.79-1.215 1.346 0 2.597 0.408 3.636 1.107l-0.023-0.015c-0.7 0.101-1.316 0.238-1.913 0.417l0.092-0.024zM18.354 7.551c0.075-0.139 1.868-3.402 5.066-4.183 0.034-0.007 0.073-0.012 0.112-0.012 0.306 0 0.555 0.248 0.555 0.555 0 0.253-0.169 0.466-0.4 0.533l-0.004 0.001c-2.724 0.666-4.337 3.603-4.353 3.632-0.101 0.151-0.27 0.249-0.463 0.249-0.306 0-0.555-0.248-0.555-0.555 0-0.080 0.017-0.156 0.047-0.224l-0.001 0.004zM12.285 9.61c0.052 0.083 0.082 0.183 0.082 0.291 0 0.306-0.248 0.555-0.555 0.555-0.192 0-0.361-0.098-0.461-0.246l-0.001-0.002c-0.7-0.916-1.629-1.622-2.703-2.040l-0.042-0.014c-0.207-0.084-0.351-0.283-0.351-0.516 0-0.306 0.248-0.555 0.555-0.555 0.063 0 0.123 0.010 0.179 0.029l-0.004-0.001c1.349 0.519 2.468 1.382 3.286 2.483l0.014 0.020z"></path>
		</symbol>
		<symbol id="icon-technology" viewBox="0 0 34 32">
			<title>Technology</title>
			<path d="M33.050 30.62v0z"></path>
			<path d="M18.499 30.62c0.002 0.761 0.619 1.378 1.38 1.38h12.959c0.761-0.002 1.378-0.619 1.38-1.38v-19.981c-0.002-0.761-0.619-1.377-1.38-1.379h-1.788v-7.243c-0.003-1.111-0.903-2.011-2.014-2.014h-24.625c-1.111 0.004-2.010 0.903-2.014 2.014v19.131h-1.911c-0.271 0-0.491 0.22-0.491 0.491 0 0 0 0 0 0v0 1.024c0 1.817 1.901 3.294 4.237 3.294h14.265v1.695zM33.234 30.62c-0.002 0.218-0.178 0.394-0.396 0.395h-12.96c-0.218-0.001-0.395-0.177-0.396-0.395v-2.506h13.752zM32.838 10.242c0.218 0 0.395 0.176 0.396 0.394v16.491h-13.752v-16.488c0.001-0.218 0.178-0.395 0.396-0.395h0zM18.499 24.968h-14.265c-1.764 0-3.252-1.058-3.252-2.31v-0.531h17.517zM18.499 10.637v10.506h-15.117v-19.129c0.002-0.568 0.462-1.028 1.030-1.030h24.625c0.568 0.002 1.028 0.462 1.030 1.030v7.244h-10.188c-0.762 0.002-1.379 0.619-1.38 1.381v0z"></path>
			<path d="M27.117 29.074h-1.517c-0.272 0-0.492 0.22-0.492 0.492s0.22 0.492 0.492 0.492h1.517c0.272 0 0.492-0.22 0.492-0.492s-0.22-0.492-0.492-0.492v0z"></path>
		</symbol>
		<symbol id="icon-DesignBuild" viewBox="0 0 32 32">
			<title>Design-build</title>
			<path d="M24.485 32.003h3.5c0.001 0 0.003 0 0.004 0 2.215 0 4.011-1.794 4.015-4.008v-17.745s0-0.005 0-0.007 0-0.005 0-0.007l-0.011-0.309c-0.024-2.193-1.806-3.962-4.002-3.965h-21.17v-5.566c0-0.219-0.177-0.396-0.396-0.396v0h-2.965c-0 0-0.001 0-0.001 0-1.907 0-3.454 1.544-3.459 3.45v0.053l0.012 22.125c0.011 1.561 0.917 2.908 2.229 3.554l0.023 0.010-2.146 2.123c-0.077 0.072-0.125 0.175-0.125 0.288 0 0.219 0.177 0.396 0.396 0.396 0.003 0 0.007-0 0.010-0h20.349c0.219 0 0.396-0.177 0.396-0.396v0-2.010h2.931v2.006c-0 0.002-0 0.005-0 0.007 0 0.219 0.177 0.396 0.396 0.396 0.004 0 0.008-0 0.012-0h-0.001zM31.201 27.998c-0.005 1.772-1.442 3.206-3.215 3.206-0.001 0-0.001 0-0.002 0h-3.1v-16.945h3.1c0 0 0.001 0 0.001 0 1.31 0 2.474-0.628 3.207-1.599l0.007-0.010zM3.46 0.8h2.561v5.162h-2.762c-1.355-0.003-2.453-1.101-2.456-2.455v-0.053c0.003-1.465 1.191-2.652 2.657-2.653h0zM20.351 31.2h-18.977l2.588-2.564 0.447 0.447c0.072 0.073 0.173 0.118 0.284 0.118 0.221 0 0.4-0.179 0.4-0.4 0-0.11-0.045-0.21-0.117-0.282v0l-0.444-0.444 1.37-1.357 0.437 0.437c0.072 0.072 0.172 0.117 0.283 0.117 0.221 0 0.4-0.179 0.4-0.4 0-0.11-0.045-0.21-0.117-0.283v0l-0.435-0.435 1.374-1.359 0.428 0.428c0.072 0.072 0.172 0.117 0.283 0.117 0.221 0 0.4-0.179 0.4-0.4 0-0.11-0.045-0.21-0.117-0.283v0l-0.425-0.425 1.37-1.357 0.418 0.418c0.072 0.072 0.172 0.117 0.283 0.117 0.221 0 0.4-0.179 0.4-0.4 0-0.11-0.045-0.21-0.117-0.283v0l-0.415-0.415 1.37-1.357 0.409 0.409c0.072 0.072 0.172 0.117 0.283 0.117 0.221 0 0.4-0.179 0.4-0.4 0-0.11-0.045-0.21-0.117-0.283v0l-0.406-0.406 1.37-1.357 0.396 0.396c0.072 0.072 0.172 0.117 0.283 0.117 0.221 0 0.4-0.179 0.4-0.4 0-0.11-0.045-0.21-0.117-0.283v0l-0.396-0.396 1.37-1.357 0.39 0.39c0.072 0.072 0.172 0.117 0.283 0.117 0.221 0 0.4-0.179 0.4-0.4 0-0.11-0.045-0.21-0.117-0.283v0l-0.39-0.38 1.37-1.357 0.38 0.38c0.072 0.072 0.172 0.117 0.283 0.117 0.221 0 0.4-0.179 0.4-0.4 0-0.11-0.045-0.21-0.117-0.283v0l-0.378-0.378 2.249-2.227zM21.151 28.794v-17.344c0-0.003 0-0.006 0-0.010 0-0.219-0.177-0.396-0.396-0.396-0.112 0-0.213 0.046-0.285 0.121l-0 0-17.588 17.416c-1.21-0.462-2.056-1.608-2.069-2.953v-0.002l-0.010-19.99c0.598 0.69 1.476 1.124 2.456 1.125h24.73c1.76 0.003 3.188 1.424 3.202 3.181v0.001l0.011 0.31c-0.007 1.77-1.444 3.202-3.215 3.202-0.001 0-0.001 0-0.002 0h-3.499c-0.219 0-0.396 0.177-0.396 0.396v0 14.943z"></path>
			<path d="M16.773 22.36c-0.18-0.079-0.39-0.125-0.61-0.125-0.431 0-0.82 0.176-1.101 0.459l-0 0-3.238 3.206c-0.29 0.285-0.47 0.682-0.47 1.121 0 0.868 0.704 1.572 1.572 1.572 0.002 0 0.004 0 0.007 0h3.235c0.868-0.001 1.572-0.704 1.572-1.572v-3.21c0-0.005 0-0.010 0-0.016 0-0.646-0.395-1.199-0.957-1.432l-0.010-0.004zM16.94 27.017c-0 0.426-0.346 0.772-0.772 0.772h-3.238c-0 0-0 0-0 0-0.427 0-0.772-0.346-0.772-0.772 0-0.215 0.088-0.409 0.229-0.549l0-0 3.238-3.206c0.136-0.139 0.325-0.225 0.534-0.227h0c0.111 0 0.216 0.023 0.311 0.065l-0.005-0.002c0.281 0.113 0.475 0.383 0.475 0.699 0 0.005-0 0.010-0 0.015v-0.001z"></path>
		</symbol>
		<symbol id="icon-plus" viewBox="0 0 32 32">
			<path d="M0 14.933h32v2.133h-32z"></path>
			<path d="M17.067 0v32h-2.133v-32h2.133z"></path>
		</symbol>
	</defs>
</svg>
